<svg width="40" height="30" viewBox="0 0 40 30" fill="none" xmlns="http://www.w3.org/2000/svg">
    <path fill-rule="evenodd" clip-rule="evenodd" d="M8.60346 1.06635e-06C7.89628 -0.00088584 7.32303 0.551587 7.32321 1.23412C7.32232 1.91576 7.89646 2.46855 8.60346 2.46943C9.31028 2.46855 9.88353 1.91647 9.88407 1.23447C9.88442 0.552253 9.31063 -0.000530609 8.60346 1.06635e-06ZM4.56145e-08 6.46823C0.000693947 5.77859 0.509081 5.25334 1.28892 5.25369C2.06825 5.25351 2.54819 5.7789 2.56311 6.46907C2.56311 7.14365 2.06825 7.68325 1.27297 7.6836L1.25805 7.68289C0.49382 7.68343 -0.000173316 7.14312 4.56145e-08 6.46823ZM27.5536 6.47572C27.554 5.78622 28.0636 5.26065 28.8441 5.2619C29.6238 5.2619 30.1034 5.78711 30.1185 6.47692C30.1181 7.15146 29.6224 7.6911 28.8277 7.69092L28.8129 7.6911C28.0483 7.69092 27.5536 7.15079 27.5536 6.47572ZM29.9654 15.9821L27.6863 15.9818L27.6888 8.65009L29.9675 8.65045L29.9654 15.9821ZM35.9756 10.3318V8.65227L34.342 8.65209L34.3425 6.65774L32.1076 7.27176L32.1068 8.65125L31.1323 8.65107V10.3304H32.1071L32.1059 13.3442C32.1054 14.3788 32.3152 15.0832 32.7355 15.5181C33.1096 15.8932 33.7251 16.1477 34.4588 16.1477C35.0888 16.1477 35.6438 16.0592 35.9283 15.9539L35.9135 14.2293C35.7042 14.2744 35.555 14.2897 35.2396 14.2891C34.564 14.2897 34.3403 13.885 34.3403 12.9995L34.3408 10.331L35.9756 10.3318ZM0.13195 15.9737L2.41077 15.9742L2.41285 8.64249L0.134205 8.64236L0.13195 15.9737ZM8.3196 13.1167L3.7533 13.1155L3.75296 10.9633L8.31978 10.9642L8.3196 13.1167ZM17.2179 5.33382L14.9386 5.33245L14.9372 9.30659H14.9067C14.5771 8.81087 13.8876 8.48059 12.9728 8.48095C11.2189 8.48041 9.67428 9.91888 9.68783 12.3784C9.68783 14.6576 11.082 16.1418 12.8211 16.1427C13.7653 16.1427 14.6654 15.7238 15.115 14.9138H15.1597L15.2501 15.9784L17.274 15.9788C17.2444 15.4841 17.2143 14.6298 17.2148 13.7895L17.2179 5.33382ZM14.9358 12.7245C14.936 12.9043 14.921 13.0844 14.8909 13.2348C14.7558 13.8795 14.216 14.3292 13.5572 14.3284C12.6119 14.3287 11.9968 13.5482 11.997 12.3189C11.9978 11.1649 12.5231 10.2354 13.5718 10.2357C14.2767 10.2361 14.7714 10.7304 14.9063 11.3455C14.9358 11.4757 14.9362 11.6201 14.9365 11.7506V11.7506L14.9365 11.7644L14.9358 12.7245ZM18.6189 12.3661C18.6194 9.99618 20.1789 8.48348 22.5495 8.48383C24.7821 8.48436 26.2822 10.0282 26.2816 12.2485C26.2804 14.9167 24.3759 16.1459 22.4272 16.1454H22.4119C20.2679 16.1451 18.6182 14.7354 18.6189 12.3661ZM22.4423 14.5111H22.457C23.3569 14.5108 23.9105 13.6274 23.9114 12.3074C23.9123 11.2273 23.493 10.1181 22.4584 10.1181C21.3787 10.1181 20.9587 11.2265 20.9584 12.3218C20.9584 13.5658 21.4827 14.5111 22.4423 14.5111ZM15.1021 1.62897C15.1018 2.31203 14.5282 2.86415 13.821 2.86415C13.1133 2.86308 12.5406 2.31083 12.5406 1.6283C12.5402 0.946079 13.1133 0.394184 13.8215 0.393651C14.5285 0.394539 15.1019 0.947989 15.1021 1.62897ZM20.2349 2.90922C20.2351 2.22651 19.6618 1.67409 18.955 1.6732C18.2473 1.67391 17.673 2.22669 17.6739 2.90905C17.673 3.59144 18.2461 4.14476 18.9538 4.14458C19.6617 4.14476 20.2344 3.59229 20.2349 2.90922ZM25.2227 4.52945C25.2227 5.21043 24.6483 5.76343 23.9409 5.76272C23.2337 5.76308 22.6608 5.20941 22.6605 4.52754C22.6608 3.84537 23.2341 3.29294 23.9418 3.29378C24.6495 3.29347 25.2232 3.8459 25.2227 4.52945ZM5.45932 3.00512C5.45883 2.32277 4.88571 1.7698 4.17874 1.7698C3.47174 1.7698 2.89744 2.32228 2.89744 3.0041C2.89779 3.6861 3.47001 4.23892 4.17769 4.23906C4.88522 4.23995 5.4583 3.68734 5.45932 3.00512ZM38.5817 4.32144H38.6745C38.7876 4.32144 38.8427 4.3591 38.8427 4.45536C38.8427 4.54466 38.8014 4.58578 38.671 4.58578H38.5817V4.32144ZM38.8437 5.26376C38.8603 5.29132 38.8787 5.32174 38.9038 5.36249L39.2989 5.36267C39.2989 5.36267 39.1619 5.13234 39.069 4.98803C39.0641 4.98097 39.0591 4.97379 39.0541 4.96657C39.0106 4.90358 38.9647 4.83708 38.8939 4.80935C39.0656 4.79239 39.1965 4.64808 39.1965 4.45239C39.1965 4.21181 39.0318 4.05018 38.7742 4.05L38.2486 4.04965L38.2478 5.36218L38.5808 5.36231L38.5811 4.84354C38.6085 4.86748 38.6462 4.92609 38.7668 5.13892C38.7991 5.18976 38.8196 5.22375 38.8437 5.26376ZM38.723 3.76484C39.2347 3.76519 39.6501 4.20195 39.6496 4.73426C39.6496 5.26658 39.2333 5.70267 38.7216 5.70231C38.2096 5.70213 37.7945 5.26538 37.7945 4.73289C37.7951 4.20053 38.2108 3.76466 38.723 3.76484ZM38.7216 6.01141C39.4259 6.0119 39.9996 5.43864 40 4.73444C40.0005 4.0302 39.4273 3.4561 38.723 3.45557C38.0188 3.45521 37.4447 4.02846 37.4442 4.73271C37.4438 5.43691 38.0174 6.01105 38.7216 6.01141Z" fill="#7b8a8b"/>
</svg>
